sensor,sensorName,locationWKT,sensorCentroidLatitude,sensorHeightAboveGround,brokerName,groundHeightAboveSeaLevel,sensorCentroidLongitude,thirdParty,acquisition,acquisition_date,image,image_filename,annotator,annotator_name,annotating,annotation,annotation_name,pose,truncated,difficult,xmin,xmax,ymin,ymax,trainingset,trainingset_id,architecture,architecture_id,hyper_parameters,epocs,weight_decays,dropout,L2_weight,model,model_id,counting,count,count_value
prov:QUALIFIED_NAME,xsd:string,xsd:string,xsd:string,xsd:string,xsd:string,xsd:string,xsd:string,xsd:string,prov:QUALIFIED_NAME,var:string,prov:QUALIFIED_NAME,xsd:string,prov:QUALIFIED_NAME,xsd:string,prov:QUALIFIED_NAME,prov:QUALIFIED_NAME,xsd:string,xsd:string,xsd:string,xsd:string,xsd:int,xsd:int,xsd:int,xsd:int,prov:QUALIFIED_NAME,xsd:string,prov:QUALIFIED_NAME,xsd:string,prov:QUALIFIED_NAME,xsd:string,xsd:string,xsd:string,xsd:string,prov:QUALIFIED_NAME,xsd:string,prov:QUALIFIED_NAME,prov:QUALIFIED_NAME,xsd:int
uo:cam_40e76132-de9f-4080-8d35-29a68711325c,B1318_Great _North_Road_Brunton_Lane,POINT (-1.61187546061534 54.974385788398),54.97438579,2,UTMC Open Camera Feeds,43.8499984741,-1.611875461,FALSE,uo:acquire_40e76132-de9f-4080-8d35-29a68711325c,20190105,uo:image_40e76132-de9f-4080-8d35-29a68711325c,https://file.newcastle.urbanobservatory.ac.uk/camera-feeds/VAISALACCTV59/20190213/100609.jpg,uo:TK,Tom Kumar,uo:ann_8c97f71a-2f7d-11e9-b210-d663bd873d93,uo:anotated1,,,,,,,,,uo:trainingset_v1,traininset_v1,uo:inception_v2,inception_v2,uo:null,,,,,uo:TFIV2,TF_I_V2_ca3bf30a-2f7d-11e9-b210-d663bd873d93,uo:counting1,uo:count1,3
uo:cam_40e76132-de9f-4080-8d35-29a68711325c,B1318_Great _North_Road_Brunton_Lane,POINT (-1.61187546061534 54.974385788398),54.97438579,2,UTMC Open Camera Feeds,43.8499984741,-1.611875461,FALSE,uo:acquire_40e76132-de9f-4080-8d35-29a68711325c,20190106,uo:image_f20b02fa-5141-11e9-8647-d663bd873d93,https://file.newcastle.urbanobservatory.ac.uk/camera-feeds/VAISALACCTV59/20190213/100610.jpg,uo:TK,Tom Kumar,uo:ann_8c97f71a-2f7d-11e9-b210-d663bd873d93,uo:anotated2,,,,,,,,,uo:trainingset_v1,traininset_v1,uo:inception_v2,inception_v2,uo:null,,,,,uo:TFIV2,TF_I_V2_ca3bf30a-2f7d-11e9-b210-d663bd873d93,uo:counting2,uo:count2,10
uo:cam_40e76132-de9f-4080-8d35-29a68711325c,B1318_Great _North_Road_Brunton_Lane,POINT (-1.61187546061534 54.974385788398),54.97438579,2,UTMC Open Camera Feeds,43.8499984741,-1.611875461,FALSE,uo:acquire_40e76132-de9f-4080-8d35-29a68711325c,20190107,uo:image_f20b05e8-5141-11e9-8647-d663bd873d93,https://file.newcastle.urbanobservatory.ac.uk/camera-feeds/VAISALACCTV59/20190213/100611.jpg,uo:TK,Tom Kumar,uo:ann_8c97f71a-2f7d-11e9-b210-d663bd873d93,uo:anotated3,,,,,,,,,uo:trainingset_v1,traininset_v1,uo:inception_v2,inception_v2,uo:null,,,,,uo:TFIV2,TF_I_V2_ca3bf30a-2f7d-11e9-b210-d663bd873d93,uo:counting3,uo:count3,2
uo:cam_40e76132-de9f-4080-8d35-29a68711325c,B1318_Great _North_Road_Brunton_Lane,POINT (-1.61187546061534 54.974385788398),54.97438579,2,UTMC Open Camera Feeds,43.8499984741,-1.611875461,FALSE,uo:acquire_40e76132-de9f-4080-8d35-29a68711325c,20190108,uo:image_f20b0782-5141-11e9-8647-d663bd873d93,https://file.newcastle.urbanobservatory.ac.uk/camera-feeds/VAISALACCTV59/20190213/100612.jpg,uo:TK,Tom Kumar,uo:ann_8c97f71a-2f7d-11e9-b210-d663bd873d93,uo:anotated4,,,,,,,,,uo:trainingset_v1,traininset_v1,uo:inception_v2,inception_v2,uo:null,,,,,uo:TFIV2,TF_I_V2_ca3bf30a-2f7d-11e9-b210-d663bd873d93,uo:counting4,uo:count4,5
uo:cam_40e76132-de9f-4080-8d35-29a68711325c,B1318_Great _North_Road_Brunton_Lane,POINT (-1.61187546061534 54.974385788398),54.97438579,2,UTMC Open Camera Feeds,43.8499984741,-1.611875461,FALSE,uo:acquire_40e76132-de9f-4080-8d35-29a68711325c,20190109,uo:image_f20b0b74-5141-11e9-8647-d663bd873d93,https://file.newcastle.urbanobservatory.ac.uk/camera-feeds/VAISALACCTV59/20190213/100613.jpg,uo:TK,Tom Kumar,uo:ann_8c97f71a-2f7d-11e9-b210-d663bd873d93,uo:anotated5,,,,,,,,,uo:trainingset_v1,traininset_v1,uo:inception_v2,inception_v2,uo:null,,,,,uo:TFIV2,TF_I_V2_ca3bf30a-2f7d-11e9-b210-d663bd873d93,uo:counting5,uo:count5,6
uo:cam_40e76132-de9f-4080-8d35-29a68711325c,B1318_Great _North_Road_Brunton_Lane,POINT (-1.61187546061534 54.974385788398),54.97438579,2,UTMC Open Camera Feeds,43.8499984741,-1.611875461,FALSE,uo:acquire_40e76132-de9f-4080-8d35-29a68711325c,20190110,uo:image_f20b0d04-5141-11e9-8647-d663bd873d93,https://file.newcastle.urbanobservatory.ac.uk/camera-feeds/VAISALACCTV59/20190213/100614.jpg,uo:TK,Tom Kumar,uo:ann_8c97f71a-2f7d-11e9-b210-d663bd873d93,uo:anotated6,,,,,,,,,uo:trainingset_v1,traininset_v1,uo:inception_v2,inception_v2,uo:null,,,,,uo:TFIV2,TF_I_V2_ca3bf30a-2f7d-11e9-b210-d663bd873d93,uo:counting6,uo:count6,7
uo:cam_40e76132-de9f-4080-8d35-29a68711325c,B1318_Great _North_Road_Brunton_Lane,POINT (-1.61187546061534 54.974385788398),54.97438579,2,UTMC Open Camera Feeds,43.8499984741,-1.611875461,FALSE,uo:acquire_40e76132-de9f-4080-8d35-29a68711325c,20190111,uo:image_f20b0e58-5141-11e9-8647-d663bd873d93,https://file.newcastle.urbanobservatory.ac.uk/camera-feeds/VAISALACCTV59/20190213/100615.jpg,uo:TK,Tom Kumar,uo:ann_8c97f71a-2f7d-11e9-b210-d663bd873d93,uo:anotated7,,,,,,,,,uo:trainingset_v1,traininset_v1,uo:inception_v2,inception_v2,uo:null,,,,,uo:TFIV2,TF_I_V2_ca3bf30a-2f7d-11e9-b210-d663bd873d93,uo:counting7,uo:count7,6
