camera,camera_id,camera_name,image,image_filename,acquisition,acquisition_date,model,model_id,count,count_value,couting
prov:QUALIFIED_NAME,xsd:string,xsd:string,prov:QUALIFIED_NAME,xsd:string,prov:QUALIFIED_NAME,xsd:date,prov:QUALIFIED_NAME,xsd:string,prov:QUALIFIED_NAME,xsd:int,prov:QUALIFIED_NAME
uo:cam1,JVC321634,Newcastle,uo:image1,20190101000000.jpg,uo:acquired1,20181012,uo:model,Model_1234,uo:count1,5,uo:counting1
uo:cam1,JVC321634,Newcastle,uo:image2,20190101000100.jpg,uo:acquired2,20181012,uo:model,Model_1234,uo:count2,3,uo:counting2
uo:cam1,JVC321634,Newcastle,uo:image3,20190101000200.jpg,uo:acquired3,20181012,uo:model,Model_1234,uo:count3,4,uo:counting3
uo:cam1,JVC321634,Newcastle,uo:image4,20190101000300.jpg,uo:acquired4,20181012,uo:model,Model_1234,uo:count4,6,uo:counting4
