Themes,Themes_id,Name
prov:QUALIFIED_NAME,xsd:string,xsd:string
uo:Theme_building,Building,Building
uo:Theme_traffic,Traffic,Traffic
uo:Theme_weather,Weather,Weather
uo:Theme_environment,Environment,Environment
uo:Theme_airquality,Air Quality,Air Quality
uo:Theme6,Light,Light
uo:Theme7,Noise,Noise
uo:Theme8,Vehicles,Vehicles
uo:Theme9,Electrical,Electrical
uo:Theme10,People,People
uo:Theme11,Soil,Soil
uo:Theme12,Water Quality,Water Quality
uo:Theme13,Bee Hive,Bee Hive
uo:Theme14,Sewage,Sewage
uo:Theme15,Water Level,Water Level
